{"usuarios": 
		[
    				{
					"username" : "test",
					"password" : "test1"				
				},
			
				{

					"username" : "u2",
					"password" : "pass2"
				
				},	
				{

					"username" : "u3",
					"password" : "pass3"

				}
		]

}
